Lab 2
…
glimpse(fires_raw)

## Observations: 2,118
## Variables: 7
## $ year        <dbl> 1990, 1990, 1990, 1990, 1990, 1990, 1990, 1990, 1990, 199
## $ month       <dbl> 1, 2, 3, 4, 5, 6, 7, 8, 9, 10, 11, 12, 1, 2, 3, 4, 5, 6, 
## $ temp_max    <dbl> 27.06452, 25.60893, 26.50645, 22.66667, 20.21935, 16.0950
## $ state_name  <chr> "South Australia", "South Australia", "South Australia", 
## $ rainfall_mm <dbl> 29.2, 4.4, 0.5, 11.6, 13.2, 83.0, 96.4, 91.4, 49.5, 28.6,
## $ n_fires     <dbl> NA, NA, NA, NA, NA, NA, NA, NA, NA, NA, NA, NA, NA, NA, N
## $ temp_mean   <dbl> 21.82097, 20.85539, 21.41371, 17.83167, 15.86694, 12.1483

print(fires_raw)

## # A tibble: 2,118 x 7
##     year month temp_max state_name      rainfall_mm n_fires temp_mean
##    <dbl> <dbl>    <dbl> <chr>                 <dbl>   <dbl>     <dbl>
##  1  1990     1     27.1 South Australia        29.2      NA      21.8
##  2  1990     2     25.6 South Australia         4.4      NA      20.9
##  3  1990     3     26.5 South Australia         0.5      NA      21.4
##  4  1990     4     22.7 South Australia        11.6      NA      17.8
##  5  1990     5     20.2 South Australia        13.2      NA      15.9
##  6  1990     6     16.1 South Australia        83        NA      12.1
##  7  1990     7     15.3 South Australia        96.4      NA      11.6
##  8  1990     8     14.9 South Australia        91.4      NA      11.4
##  9  1990     9     19.3 South Australia        49.5      NA      14.5
## 10  1990    10     21.5 South Australia        28.6      NA      16.4
## #  with 2,108 more rows
…
Lets take a look at the missing values in the n_fires column that contains the number of recorded bushfires for each month.

In the code chunk below, first calculate the proportion of missing values for each year. As you learned in datacamp, you can do this by taking the dataset and group_by() year, summarize() the number of NAs for each year, mutate a new column called perc_NA that calculates the percentage of NAs in each year, and then arrange() by decreasing order based on percentage of missing bushfires. (Some of the code is already done for you)

We will take a look at the data using the print command

perc_missing_fires <- fires_raw %>% group_by(year) %>%
  summarize(total_na = sum(is.na(n_fires)),
            total_observations = n()) %>% # n() calculates total observations by group (in this case, year)
  mutate(perc_na = total_na/total_observations*100) %>%
  arrange(desc(perc_na))

print(perc_missing_fires)

## # A tibble: 30 x 4
##     year total_na total_observations perc_na
##    <dbl>    <int>              <int>   <dbl>
##  1  1990       72                 72     100
##  2  1991       72                 72     100
##  3  1992       72                 72     100
##  4  1993       72                 72     100
##  5  1994       72                 72     100
##  6  1995       72                 72     100
##  7  1996       72                 72     100
##  8  1997       72                 72     100
##  9  1998       72                 72     100
## 10  1999       72                 72     100
## #  with 20 more rows
…
