Download tweets using Twitter API
…
## Create lat/lng variables using all available tweet and profile geo-location data
tweets_sf <- geo.ncov_tw %>%
  filter(!is.na(lng)) %>%
  st_as_sf(coords = c("lng","lat"),
                      crs = 4326)
print(tweets_sf[92], n = 3)

## Simple feature collection with 94 features and 0 fields
## geometry type:  POINT
## dimension:      XY
## bbox:           xmin: -124.1695 ymin: -40.85682 xmax: 175.1469 ymax: 54.99206
## epsg (SRID):    4326
## proj4string:    +proj=longlat +datum=WGS84 +no_defs
## # A tibble: 94 x 1
##               geometry
##            <POINT []>
## 1 (-87.73201 41.83358)
## 2 (-111.8809 33.28245)
## 3 (-97.13564 32.70185)
## #  with 91 more rows
…
