Reproducible Research
…
fill in the blanks to get the data with poc greater 10000, with 2 columns sorted by poc in ascending order.

---
# Fill in the blanks: Type 2

```r
dat <- nc_wide %>% ______(poc > 1000) %>% 
  _______(name, poc) %>%
  ________(poc)
```

```
# A tibble: 99 x 2
   name      people_of_color
   <chr>               <dbl>
 1 Graham               1129
 2 Mitchell             1143
 3 Madison              1265
 4 Yancey               1307
 5 Alleghany            1425
 6 Tyrrell              1922
 7 Ashe                 1986
 8 Camden               2047
 9 Avery                2203
10 Hyde                 2215
# … with 89 more rows
```
…
